eds213_data_cleaning_assign_JOSHUAPAULCOHEN
…
bad_pct_nrows <- cover_fix2 %>% filter(
  
  # for all values in `*_cover` cols out of range
  if_any(Snow_cover:Total_cover, ~ .x > 100 | .x < 0)
  )

# print bad obs
cat("Number if rows not respecting percentage expectations before fixing:", bad_pct_nrows %>% nrow())

Number if rows not respecting percentage expectations before fixing: 24

bad_pct_nrows

# A tibble: 24 × 11
   Site   Year Date      Plot  Location Snow_cover Water_cover Land_cover
   <chr> <dbl> <chr>     <chr> <chr>         <dbl>       <dbl>      <dbl>
 1 barr   2011 31-May-11 brw3  d10              NA           0       -100
 2 barr   2011 8-Jun-11  brw5  l4               45         353       -298
 3 cari   2011 11-Jun-11 5b    19               35          30         45
 4 cari   2011 11-Jun-11 5b    21                5          55         45
 5 cari   2011 11-Jun-11 5b    22               10          30         70
 6 prba   2011 7-Jun-11  9     35               20          40         50
 7 prba   2011 14-Jun-11 5     4                 5          15         85
 8 barr   2014 8-Jun-14  brw0  f12              75           0         30
 9 barr   2014 8-Jun-14  brw0  h4               75           5         25
10 barr   2014 4-Jun-14  brw2  d8               65           0         45
# ℹ 14 more rows
# ℹ 3 more variables: Total_cover <dbl>, Observer <chr>, Notes <chr>
…
  # recompute cover with new vals if it doesn't equal 100
  mutate(Total_cover = ifelse(Total_cover != 100, 
                              Snow_cover + Water_cover + Land_cover, 
                              Total_cover
                       )
         ) %>% 
  
  # eject indicator col so it's not in final table
  select(-cond_trigger)

cover_fix4

# A tibble: 42,830 × 11
   Site   Year Date      Plot  Location Snow_cover Water_cover Land_cover
   <chr> <dbl> <chr>     <chr> <chr>         <dbl>       <dbl>      <dbl>
 1 barr   2011 29-May-11 brw1  b10              90           0         10
 2 barr   2011 29-May-11 brw1  b12             100           0          0
 3 barr   2011 29-May-11 brw1  b2               90           0         10
 4 barr   2011 29-May-11 brw1  b4              100           0          0
 5 barr   2011 29-May-11 brw1  b6               95           0          5
 6 barr   2011 29-May-11 brw1  b8               95           0          5
 7 barr   2011 29-May-11 brw1  d10              95           0          5
 8 barr   2011 29-May-11 brw1  d12              90           0         10
 9 barr   2011 29-May-11 brw1  d2               95           0          5
10 barr   2011 29-May-11 brw1  d4               95           0          5
# ℹ 42,820 more rows
# ℹ 3 more variables: Total_cover <dbl>, Observer <chr>, Notes <chr>
…
We remove all rows that were unable to be corrected, although I think it’s more appropriate to mark them as being bad data in the notes column.

cover_fix_final <- cover_fix4 %>% 
  filter(Snow_cover + Water_cover + Land_cover == 100 & Total_cover == 100)

Write csv

write_csv(cover_fix_final, "data/processed/all_cover_fixed_JOSHUAPAULCOHEN.csv")

Print final table

cover_fix_final

# A tibble: 40,632 × 11
   Site   Year Date      Plot  Location Snow_cover Water_cover Land_cover
   <chr> <dbl> <chr>     <chr> <chr>         <dbl>       <dbl>      <dbl>
 1 barr   2011 29-May-11 brw1  b10              90           0         10
 2 barr   2011 29-May-11 brw1  b12             100           0          0
 3 barr   2011 29-May-11 brw1  b2               90           0         10
 4 barr   2011 29-May-11 brw1  b4              100           0          0
 5 barr   2011 29-May-11 brw1  b6               95           0          5
 6 barr   2011 29-May-11 brw1  b8               95           0          5
 7 barr   2011 29-May-11 brw1  d10              95           0          5
 8 barr   2011 29-May-11 brw1  d12              90           0         10
 9 barr   2011 29-May-11 brw1  d2               95           0          5
10 barr   2011 29-May-11 brw1  d4               95           0          5
# ℹ 40,622 more rows
# ℹ 3 more variables: Total_cover <dbl>, Observer <chr>, Notes <chr>
